<svg xmlns="http://www.w3.org/2000/svg" xmlns:xlink="http://www.w3.org/1999/xlink" width="1781.407" height="796.068" viewBox="0 0 1781.407 796.068">
  <defs>
    <linearGradient id="linear-gradient" x1="0.5" x2="0.5" y2="1" gradientUnits="objectBoundingBox">
      <stop offset="0" stop-color="#0097a9"/>
      <stop offset="1" stop-color="#00a1b5"/>
    </linearGradient>
  </defs>
  <g id="hero-bg" transform="translate(0.004)">
    <path id="Path_1" data-name="Path 1" d="M1650.59,755.5c56.3,272.618-131.189,364.024-310.13,505.374-347.561,273.959-503.57,14.469-1065.8,253.673S-85.172,755.5-85.172,755.5Z" transform="translate(120.633 -755.5)" fill="#0097a9"/>
    <path id="Path_2" data-name="Path 2" d="M-113.148,755.5c-41.4,185.71,96.459,247.977,228.027,344.266,255.548,186.624,370.256,9.856,783.643,172.8s264.57-517.07,264.57-517.07Z" transform="translate(286.464 -753.856)" fill="url(#linear-gradient)"/>
  </g>
</svg>
