<svg xmlns="http://www.w3.org/2000/svg" width="70" height="70" viewBox="0 0 70 70">
  <g id="Group_480" data-name="Group 480" transform="translate(-300 -3118)">
    <rect id="Rectangle_4" data-name="Rectangle 4" width="70" height="70" transform="translate(300 3118)" fill="#0097a9"/>
    <g id="Group_20" data-name="Group 20" transform="translate(6 49.008)">
      <path id="Path_16" data-name="Path 16" d="M465.815,3998.917l20.923-30.836,14.408,21.234,7.831-11.541,14.346,21.143Z" transform="translate(-165.815 -875.895)" fill="#fff" stroke="#0097a9" stroke-width="1"/>
      <g id="Ellipse_162" data-name="Ellipse 162" transform="translate(340.369 3083.991)" fill="#fff" stroke="#0097a9" stroke-width="1">
        <circle cx="5.69" cy="5.69" r="5.69" stroke="none"/>
        <circle cx="5.69" cy="5.69" r="5.19" fill="none"/>
      </g>
    </g>
  </g>
</svg>
